{
  "db": null,
  "saltRounds": 10,
  "heartbeat": 60000,
  "archive": 300000,
  "startDeadline": 300000,
  "deadline": 604800000,
  "startingElo": 1200,
  "enableBrute": false,
  "port": 5000,
  "gatewayString": "This server is meant for HTTP API calls. Source code and API documentation available here: <a href=\"https://gitlab.com/alexbay218/5d-chess-server\">https://gitlab.com/alexbay218/5d-chess-server</a>",
  "motdString": "Welcome to the 5D Chess Server! This server is still in default configuration, which has rate-limiting mechanisms disabled. Contact the server admin to let them know of the issue!",
  "xmpp": {
    "enable": false,
    "service": "xmpp.example.com",
    "domain": "xmpp.example.com",
    "muc": "xmppmuc.example.com",
    "username": "admin@xmpp.example.com",
    "password": "adminpass",
    "defaultRooms": [
      "general",
      "ranked"
    ]
  },
  "usernameBlacklist": [
    "admin"
  ]
}
